fullname,shortname,balance,main_badge,alt_badges,account_creation_date,alt_badges_dates,last_update_date
add_credit,20euro,0,826167363963,(),2000-01-01 20:25:29.698900,(),2000-01-01 21:19:20.497904
patient zero,agent z,0,DEADBEEF,"('455524028460', '000000001')",2020-02-09 20:25:29.569930,"('2020-02-09 20:25:29.569930','2020-02-09 20:25:29.569930')",2020-02-09 20:25:29.570042
Hadrien,Hadrien,-2,584187532691,(),2020-02-09 20:26:08.173243,(),2020-02-09 21:19:30.060290
